{
  "development": {
    "username": "postgres",
    "password": "12092014",
    "database": "uran",
    "host": "127.0.0.1",
    "port": 5432,
    "dialect": "postgres"
  },
  "test": {
    "username": "root",
    "password": null,
    "database": "database_test",
    "host": "127.0.0.1",
    "dialect": "mysql",
    "operatorsAliases": false
  },
  "production": {
    "username": "twilio",
    "password": "12092014",
    "database": "twilio_db",
    "host": "https://twilio.devserver.app",
    "port": 5432,
    "dialect": "postgres"
  }
}
